…
``` r
#correct swapped trmB_a_glu and tbsP_e_glu samples: 
a <- colnames(counts2021)[23]
b <- colnames(counts2021)[25]

colnames(counts2021)[23] <- b
colnames(counts2021)[25] <- a

#merge
(left_join(counts2021, counts2019, by = c("Geneid", "Chr", "Start", "End", "Strand", "Length")) -> counts_combined)
```

    ## # A tibble: 3,982 × 55
    ##    Geneid Chr   Start   End Strand Length HVO_DS2_reference deltadelta_a_glu_S16
    ##    <chr>  <chr> <dbl> <dbl> <chr>   <dbl>             <dbl>                <dbl>
    ##  1 HVO_R… NC_0…   258  1952 +        1695              6411                12475
    ##  2 HVO_R… NC_0…  2000  2797 -         798              8166                12123
    ##  3 HVO_R… NC_0…  2942  4543 +        1602              7809                22141
    ##  4 HVO_R… NC_0…  4686  5813 +        1128              2023                 3800
    ##  5 HVO_R… NC_0…  5936  6745 -         810              2168                 2848
    ##  6 HVO_R… NC_0…  6854  7282 -         429              1087                 1715
    ##  7 HVO_R… NC_0…  7470  8648 +        1179              4786                 8816
    ##  8 HVO_R… NC_0…  8873 10219 +        1347              7631                 1733
    ##  9 HVO_R… NC_0… 10248 10907 -         660              2042                 2390
    ## 10 HVO_R… NC_0… 10956 11528 -         573               747                 4303
    ## # ℹ 3,972 more rows
    ## # ℹ 47 more variables: deltadelta_a_noglu_S35 <dbl>,
    ## #   deltadelta_b_glu_S53 <dbl>, deltadelta_b_noglu_S36 <dbl>,
    ## #   deltadelta_c_glu_S43 <dbl>, deltadelta_d_glu_S44 <dbl>,
    ## #   deltadelta_d_noglu_S5 <dbl>, tbsP_a_glu_S33 <dbl>, tbsP_a_noglu_S24 <dbl>,
    ## #   tbsP_b_glu_S2 <dbl>, tbsP_b_noglu_S30 <dbl>, tbsP_c_glu_S51 <dbl>,
    ## #   tbsP_c_noglu_S15 <dbl>, tbsP_d_glu_S52 <dbl>, tbsP_d_noglu_S31 <dbl>, …
…
