…
# Apply significance threshold, view and export table
table_mGlu_trmB_sig <- table_mGlu_trmB %>%
  filter(padj < 0.01) %>%
  filter(abs(log2FoldChange) >= 1)

# Merge with gff information (get NCBI annotations and locus names)
gff_df[gff_df$locus_tag %in% table_mGlu_trmB_sig$locus_tag, ][c(2, 3, 4, 10)] -> tmp
left_join(table_mGlu_trmB_sig, tmp, by = "locus_tag") -> table_mGlu_trmB_sig

# how many are up and down regulated?
filter(table_mGlu_trmB_sig, log2FoldChange >= 1)
```

    ## # A tibble: 120 × 10
    ##    locus_tag   baseMean log2FoldChange lfcSE  stat   pvalue     padj acc        
    ##    <chr>          <dbl>          <dbl> <dbl> <dbl>    <dbl>    <dbl> <chr>      
    ##  1 HVO_RS04755    3920.           4.53 0.565  6.24 4.27e-10 4.85e- 8 WP_0040449…
    ##  2 HVO_RS04975    2489.           3.44 0.288  8.46 2.72e-17 1.20e-14 WP_0040450…
    ##  3 HVO_RS04980   11571.           3.47 0.312  7.93 2.16e-15 6.61e-13 WP_0040450…
    ##  4 HVO_RS04985    9717.           3.28 0.307  7.42 1.17e-13 2.45e-11 WP_0040450…
    ##  5 HVO_RS04990   14572.           3.15 0.298  7.22 5.20e-13 8.99e-11 WP_0040450…
    ##  6 HVO_RS04995   10819.           2.99 0.252  7.91 2.50e-15 7.09e-13 WP_0040450…
    ##  7 HVO_RS05000  121294.           2.43 0.376  3.79 1.48e- 4 2.82e- 3 WP_0040450…
    ##  8 HVO_RS05415    3080.           1.54 0.136  3.98 6.81e- 5 1.45e- 3 WP_0040452…
    ##  9 HVO_RS05590    1174.           1.70 0.184  3.78 1.58e- 4 2.97e- 3 WP_0040452…
    ## 10 HVO_RS05595     368.           1.81 0.208  3.91 9.40e- 5 1.90e- 3 WP_0040452…
    ## # ℹ 110 more rows
    ## # ℹ 2 more variables: old_locus_tag <chr>, annotation <chr>

``` r
filter(table_mGlu_trmB_sig, log2FoldChange <= -1)
```

    ## # A tibble: 135 × 10
    ##    locus_tag   baseMean log2FoldChange lfcSE  stat        pvalue      padj acc  
    ##    <chr>          <dbl>          <dbl> <dbl> <dbl>         <dbl>     <dbl> <chr>
    ##  1 HVO_RS06105   21793.          -2.35 0.330 -4.11 0.0000399       9.31e-4 WP_0…
    ##  2 HVO_RS06110   35410.          -2.23 0.342 -3.60 0.000313        5.33e-3 WP_0…
    ##  3 HVO_RS06270    8517.          -2.20 0.272 -4.41 0.0000105       3.01e-4 WP_0…
    ##  4 HVO_RS06275    7096.          -2.13 0.296 -3.81 0.000142        2.71e-3 WP_0…
    ##  5 HVO_RS06430    6156.          -1.54 0.149 -3.65 0.000267        4.66e-3 WP_0…
    ##  6 HVO_RS07030   36854.          -2.17 0.261 -4.47 0.00000799      2.41e-4 WP_0…
    ##  7 HVO_RS07260   22501.          -3.89 0.489 -5.90 0.00000000357   3.30e-7 WP_0…
    ##  8 HVO_RS07265    6098.          -3.14 0.457 -4.68 0.00000292      1.04e-4 WP_0…
    ##  9 HVO_RS07600     983.          -2.88 0.360 -5.21 0.000000191     9.71e-6 WP_0…
    ## 10 HVO_RS07605    1304.          -3.32 0.438 -5.30 0.000000119     6.75e-6 WP_0…
    ## # ℹ 125 more rows
    ## # ℹ 2 more variables: old_locus_tag <chr>, annotation <chr>
…
    ## # A tibble: 5 × 10
    ##   locus_tag   baseMean log2FoldChange lfcSE  stat   pvalue     padj acc         
    ##   <chr>          <dbl>          <dbl> <dbl> <dbl>    <dbl>    <dbl> <chr>       
    ## 1 HVO_RS06315    5943.           2.79 0.400  4.48 7.55e- 6 1.43e- 3 WP_00404458…
    ## 2 HVO_RS07010   32033.           4.22 0.292 11.0  3.18e-28 1.26e-24 WP_01303562…
    ## 3 HVO_RS08595   40407.           2.22 0.241  5.07 3.95e- 7 1.05e- 4 WP_00404412…
    ## 4 HVO_RS11680   27349.           2.04 0.255  4.07 4.69e- 5 5.06e- 3 WP_00404348…
    ## 5 HVO_RS16135   10982.           3.26 0.385  5.86 4.57e- 9 2.60e- 6 WP_00404226…
    ## # ℹ 2 more variables: old_locus_tag <chr>, annotation <chr>

``` r
filter(table_tbsP_sig_glu, log2FoldChange <= -1)
```

    ## # A tibble: 35 × 10
    ##    locus_tag   baseMean log2FoldChange lfcSE  stat      pvalue     padj acc     
    ##    <chr>          <dbl>          <dbl> <dbl> <dbl>       <dbl>    <dbl> <chr>   
    ##  1 HVO_RS04830    1776.          -2.55 0.363 -4.26 0.0000205   0.00291  WP_0040…
    ##  2 HVO_RS07620    6200.          -2.50 0.366 -4.09 0.0000431   0.00498  WP_0040…
    ##  3 HVO_RS07635    2539.          -2.63 0.407 -4.01 0.0000601   0.00629  WP_0040…
    ##  4 HVO_RS07905    1408.          -2.38 0.354 -3.91 0.0000942   0.00936  WP_0040…
    ##  5 HVO_RS07920    4445.          -2.90 0.465 -4.09 0.0000438   0.00498  WP_0040…
    ##  6 HVO_RS07995     590.          -2.48 0.364 -4.07 0.0000471   0.00506  WP_0040…
    ##  7 HVO_RS08000     246.          -2.88 0.372 -5.05 0.000000437 0.000105 WP_0040…
    ##  8 HVO_RS08985   12133.          -3.01 0.471 -4.26 0.0000201   0.00291  WP_0040…
    ##  9 HVO_RS08995    1740.          -2.61 0.368 -4.37 0.0000122   0.00211  WP_0040…
    ## 10 HVO_RS09010     551.          -2.21 0.291 -4.15 0.0000332   0.00426  WP_0040…
    ## # ℹ 25 more rows
    ## # ℹ 2 more variables: old_locus_tag <chr>, annotation <chr>
…
``` r
filter(table_mglu_DD_sig, log2FoldChange <= -1)
```

    ## # A tibble: 80 × 10
    ##    locus_tag   baseMean log2FoldChange lfcSE   stat   pvalue     padj acc       
    ##    <chr>          <dbl>          <dbl> <dbl>  <dbl>    <dbl>    <dbl> <chr>     
    ##  1 HVO_RS06275    7096.          -2.46 0.327  -4.46 8.33e- 6 4.94e- 4 WP_004044…
    ##  2 HVO_RS06295    4839.          -1.94 0.254  -3.68 2.30e- 4 9.61e- 3 WP_004044…
    ##  3 HVO_RS07260   22501.          -7.83 0.541 -12.6  1.56e-36 1.24e-33 WP_004044…
    ##  4 HVO_RS07265    6098.          -7.66 0.505 -13.2  1.17e-39 1.16e-36 WP_004044…
    ##  5 HVO_RS07270    4283.          -6.98 0.491 -12.2  3.25e-34 1.85e-31 WP_004044…
    ##  6 HVO_RS07275    6554.          -6.92 0.472 -12.5  4.84e-36 3.21e-33 WP_004044…
    ##  7 HVO_RS07620    6200.          -3.50 0.417  -6.00 1.95e- 9 2.16e- 7 WP_004044…
    ##  8 HVO_RS07635    2539.          -3.49 0.462  -5.39 7.20e- 8 6.51e- 6 WP_004044…
    ##  9 HVO_RS07640    8984.          -3.74 0.521  -5.26 1.46e- 7 1.21e- 5 WP_004044…
    ## 10 HVO_RS08685    3446.          -2.95 0.409  -4.77 1.84e- 6 1.31e- 4 WP_004044…
    ## # ℹ 70 more rows
    ## # ℹ 2 more variables: old_locus_tag <chr>, annotation <chr>
…
# Apply significance threshold, view and export table
table_tbsP_sig <- table_tbsP %>%
  filter(padj < 0.01) %>%
  filter(abs(log2FoldChange) >= 1)

# Merge with gff information (get NCBI annotations and locus names)
gff_df[gff_df$locus_tag %in% table_tbsP_sig$locus_tag, ][c(2, 3, 4, 10)] -> tmp
(left_join(table_tbsP_sig, tmp, by = "locus_tag") -> table_tbsP_sig)
```

    ## # A tibble: 35 × 10
    ##    locus_tag   baseMean log2FoldChange lfcSE  stat   pvalue     padj acc        
    ##    <chr>          <dbl>          <dbl> <dbl> <dbl>    <dbl>    <dbl> <chr>      
    ##  1 HVO_RS04865    4272.           2.67 0.195  8.58 9.28e-18 2.31e-15 WP_0040450…
    ##  2 HVO_RS04900   15323.           3.51 0.280  8.97 3.10e-19 8.80e-17 WP_0040450…
    ##  3 HVO_RS04905   21025.           3.56 0.266  9.65 5.05e-22 1.54e-19 WP_0040450…
    ##  4 HVO_RS04910   26072.           3.56 0.260  9.85 6.54e-23 2.60e-20 WP_0040450…
    ##  5 HVO_RS04915   23762.           3.55 0.249 10.2  1.54e-24 6.79e-22 WP_0040450…
    ##  6 HVO_RS04920   48225.           3.51 0.231 10.9  1.22e-27 6.94e-25 WP_0040450…
    ##  7 HVO_RS04925   53935.           3.48 0.193 12.8  9.02e-38 8.97e-35 WP_0040450…
    ##  8 HVO_RS04930   10042.           3.04 0.236  8.62 6.82e-18 1.81e-15 WP_0040450…
    ##  9 HVO_RS06840   10894.           2.43 0.297  4.82 1.43e- 6 1.96e- 4 WP_0040444…
    ## 10 HVO_RS06845   11249.           2.50 0.315  4.76 1.91e- 6 2.54e- 4 WP_0040444…
    ## # ℹ 25 more rows
    ## # ℹ 2 more variables: old_locus_tag <chr>, annotation <chr>
…
# Apply significance threshold, view and export table
table_DD_sig <- table_DD %>%
  filter(padj < 0.01) %>%
  filter(abs(log2FoldChange) >= 1)

# Merge with gff information (get NCBI annotations and locus names)
gff_df[gff_df$locus_tag %in% table_DD_sig$locus_tag, ][c(2, 3, 4, 10)] -> tmp
(left_join(table_DD_sig, tmp, by = "locus_tag") -> table_DD_sig)
```

    ## # A tibble: 28 × 10
    ##    locus_tag   baseMean log2FoldChange lfcSE  stat   pvalue     padj acc        
    ##    <chr>          <dbl>          <dbl> <dbl> <dbl>    <dbl>    <dbl> <chr>      
    ##  1 HVO_RS04865    4272.           2.94 0.234  8.32 8.43e-17 2.79e-14 WP_0040450…
    ##  2 HVO_RS04900   15323.           3.46 0.336  7.33 2.38e-13 5.25e-11 WP_0040450…
    ##  3 HVO_RS04905   21025.           3.53 0.319  7.92 2.36e-15 5.85e-13 WP_0040450…
    ##  4 HVO_RS04910   26072.           3.52 0.312  8.07 6.79e-16 1.80e-13 WP_0040450…
    ##  5 HVO_RS04915   23762.           3.48 0.299  8.29 1.18e-16 3.60e-14 WP_0040450…
    ##  6 HVO_RS04920   48225.           3.56 0.277  9.23 2.61e-20 1.15e-17 WP_0040450…
    ##  7 HVO_RS04925   53935.           3.54 0.232 11.0  5.47e-28 3.62e-25 WP_0040450…
    ##  8 HVO_RS04930   10042.           3.17 0.284  7.64 2.11e-14 4.93e-12 WP_0040450…
    ##  9 HVO_RS06635   18621.           3.11 0.402  5.25 1.55e- 7 2.68e- 5 WP_0040445…
    ## 10 HVO_RS06640   12505.           2.41 0.243  5.79 7.20e- 9 1.36e- 6 WP_0040445…
    ## # ℹ 18 more rows
    ## # ℹ 2 more variables: old_locus_tag <chr>, annotation <chr>
…
