…
``` r
tB
```

    ## # A tibble: 28 × 8
    ##    locus_tag   old_locus_tag model analysis_type.x analysis_type.y analysis_type
    ##    <chr>       <chr>         <chr> <chr>           <chr>           <chr>        
    ##  1 HVO_RS05875 HVO_0240      TrmB… <NA>            <NA>            clusters_14  
    ##  2 HVO_RS05875 HVO_0240      TrmB… <NA>            <NA>            clusters_12  
    ##  3 HVO_RS06270 HVO_0326      TrmB… <NA>            <NA>            clusters_12  
    ##  4 HVO_RS06310 HVO_0334      TrmB… <NA>            rdfA_ddfA       <NA>         
    ##  5 HVO_RS06430 HVO_0358      TrmB… <NA>            <NA>            clusters_14  
    ##  6 HVO_RS08595 HVO_0812      TrmB… <NA>            <NA>            clusters_14  
    ##  7 HVO_RS09725 HVO_1048      TrmB… JK3_cetZ1       <NA>            <NA>         
    ##  8 HVO_RS09905 HVO_1084      TrmB… JK3_cetZ1       <NA>            <NA>         
    ##  9 HVO_RS09910 HVO_1085      TrmB… JK3_cetZ1       <NA>            <NA>         
    ## 10 HVO_RS10145 HVO_1133      TrmB… <NA>            rdfA_ddfA       <NA>         
    ## # ℹ 18 more rows
    ## # ℹ 2 more variables: uniprot <chr>, annotation <chr>

``` r
trmB[trmB$locus_tag %in% tB$locus_tag, ]
```

    ## # A tibble: 26 × 11
    ##    locus_tag   baseMean log2FoldChange lfcSE  stat   pvalue          padj acc   
    ##    <chr>          <dbl>          <dbl> <dbl> <dbl>    <dbl>         <dbl> <chr> 
    ##  1 HVO_RS05875    7290.           2.59 0.254  6.25 4.18e-10 0.0000000485  WP_00…
    ##  2 HVO_RS06270    8517.          -2.20 0.272 -4.41 1.05e- 5 0.000301      WP_00…
    ##  3 HVO_RS06310    3249.           4.07 0.459  6.68 2.35e-11 0.00000000333 WP_00…
    ##  4 HVO_RS06430    6156.          -1.54 0.149 -3.65 2.67e- 4 0.00466       WP_00…
    ##  5 HVO_RS08595   40407.           2.09 0.249  4.40 1.09e- 5 0.000308      WP_00…
    ##  6 HVO_RS09725   32719.           3.30 0.480  4.79 1.65e- 6 0.0000636     WP_00…
    ##  7 HVO_RS09905    8547.           2.65 0.391  4.21 2.59e- 5 0.000644      WP_00…
    ##  8 HVO_RS09910   21357.           2.48 0.342  4.31 1.65e- 5 0.000453      WP_00…
    ##  9 HVO_RS10145   16754.           1.84 0.207  4.04 5.26e- 5 0.00118       WP_00…
    ## 10 HVO_RS10820   26869.           3.31 0.405  5.70 1.20e- 8 0.000000920   WP_00…
    ## # ℹ 16 more rows
    ## # ℹ 3 more variables: old_locus_tag <chr>, annotation <chr>, model <chr>
