R Notebook
================
Rylee Hackley & Amy K. Schmid

``` r
library(tidyverse)
library(ggpattern)
library(ggpubr)

in2 <- read_csv("imageJ_measurements.csv")
in2$strain2 <- str_replace_all(in2$strain, c("trmBtbsP" = "mut", "tbsP" = "mut", "trmB" = "mut"))
in2
```

    ## # A tibble: 588 × 11
    ##    date      filename    condition plate WT    strain template_colony area_label
    ##    <chr>     <chr>       <chr>     <dbl> <chr> <chr>            <dbl> <chr>     
    ##  1 8/26/2022 dd1glu_ana… trmBtbsP…     1 H26   trmBt…               1 2         
    ##  2 8/26/2022 dd1glu_ana… trmBtbsP…     1 H26   trmBt…               2 1         
    ##  3 8/26/2022 dd1glu_ana… trmBtbsP…     1 H26   trmBt…               3 5         
    ##  4 8/26/2022 dd1glu_ana… trmBtbsP…     1 H26   WT                   1 3         
    ##  5 8/26/2022 dd1glu_ana… trmBtbsP…     1 H26   WT                   2 6         
    ##  6 8/26/2022 dd1glu_ana… trmBtbsP…     1 H26   WT                   3 4         
    ##  7 8/26/2022 dd1noglu_a… trmBtbsP…     1 H26   trmBt…               1 2         
    ##  8 8/26/2022 dd1noglu_a… trmBtbsP…     1 H26   trmBt…               2 1         
    ##  9 8/26/2022 dd1noglu_a… trmBtbsP…     1 H26   trmBt…               3 5         
    ## 10 8/26/2022 dd1noglu_a… trmBtbsP…     1 H26   WT                   1 4         
    ## # ℹ 578 more rows
    ## # ℹ 3 more variables: area_in <dbl>, notes <chr>, strain2 <chr>
…
